,0,1,2,3,4
0,1.0,-0.15976914085263527,0.20950954048367096,0.05282241062499728,0.0770504304324702
1,-0.15976914085263527,1.0,0.02088774679844994,0.03225100204879875,0.0028625214924493715
2,0.20950954048367096,0.02088774679844994,1.0,0.7423177491115521,-0.01459807463078822
3,0.05282241062499728,0.03225100204879875,0.7423177491115521,1.0,-0.02782093484314777
4,0.0770504304324702,0.0028625214924493715,-0.01459807463078822,-0.02782093484314777,1.0
